[
	{
		"data": {
			"Total": {
				"EUR": {
					"unit": "EUR",
					"auto": {
						"1": {
							"url": "https://store.kaspersky.co.za/order/checkout.php?PRODS=4639928&QTY=1&CART=1&CARD=1&SHORT_FORM=12018&CART=2&CURRENCY=EUR&DCURRENCY=EUR&LANG=en&LANGUAGES=en,pt,fr&SRC=eStore&ARN=1&OPTIONS4639928=1PCs,1_y",
							"price": "35.95"
						},
						"2": {
							"url": "https://store.kaspersky.co.za/order/checkout.php?PRODS=4639928&QTY=1&CART=1&CARD=1&SHORT_FORM=12018&CART=2&CURRENCY=EUR&DCURRENCY=EUR&LANG=en&LANGUAGES=en,pt,fr&SRC=eStore&ARN=1&OPTIONS4639928=2PCs,1_y",
							"price": "43.95"
						},
						"3": {
							"url": "https://store.kaspersky.co.za/order/checkout.php?PRODS=4639928&QTY=1&CART=1&CARD=1&SHORT_FORM=12018&CART=2&CURRENCY=EUR&DCURRENCY=EUR&LANG=en&LANGUAGES=en,pt,fr&SRC=eStore&ARN=1&OPTIONS4639928=3PCs,1_y",
							"price": "54.95"
						},
						"4": {
							"url": "https://store.kaspersky.co.za/order/checkout.php?PRODS=4639928&QTY=1&CART=1&CARD=1&SHORT_FORM=12018&CART=2&CURRENCY=EUR&DCURRENCY=EUR&LANG=en&LANGUAGES=en,pt,fr&SRC=eStore&ARN=1&OPTIONS4639928=4PCs,1_y",
							"price": "59.95"
						},
						"5": {
							"url": "https://store.kaspersky.co.za/order/checkout.php?PRODS=4639928&QTY=1&CART=1&CARD=1&SHORT_FORM=12018&CART=2&CURRENCY=EUR&DCURRENCY=EUR&LANG=en&LANGUAGES=en,pt,fr&SRC=eStore&ARN=1&OPTIONS4639928=5PCs,1_y",
							"price": "64.95"
						}
					},
					"manual": {
						"1": {
							"url": "https://store.kaspersky.co.za/order/checkout.php?PRODS=4639928&QTY=1&CART=1&CARD=1&SHORT_FORM=12018&CART=2&CURRENCY=EUR&DCURRENCY=EUR&LANG=en&LANGUAGES=en,pt,fr&SRC=eStore&ARN=0&OPTIONS4639928=1PCs,1_y",
							"price": "35.95"
						},
						"2": {
							"url": "https://store.kaspersky.co.za/order/checkout.php?PRODS=4639928&QTY=1&CART=1&CARD=1&SHORT_FORM=12018&CART=2&CURRENCY=EUR&DCURRENCY=EUR&LANG=en&LANGUAGES=en,pt,fr&SRC=eStore&ARN=0&OPTIONS4639928=2PCs,1_y",
							"price": "43.95"
						},
						"3": {
							"url": "https://store.kaspersky.co.za/order/checkout.php?PRODS=4639928&QTY=1&CART=1&CARD=1&SHORT_FORM=12018&CART=2&CURRENCY=EUR&DCURRENCY=EUR&LANG=en&LANGUAGES=en,pt,fr&SRC=eStore&ARN=0&OPTIONS4639928=3PCs,1_y",
							"price": "54.95"
						},
						"4": {
							"url": "https://store.kaspersky.co.za/order/checkout.php?PRODS=4639928&QTY=1&CART=1&CARD=1&SHORT_FORM=12018&CART=2&CURRENCY=EUR&DCURRENCY=EUR&LANG=en&LANGUAGES=en,pt,fr&SRC=eStore&ARN=0&OPTIONS4639928=4PCs,1_y",
							"price": "59.95"
						},
						"5": {
							"url": "https://store.kaspersky.co.za/order/checkout.php?PRODS=4639928&QTY=1&CART=1&CARD=1&SHORT_FORM=12018&CART=2&CURRENCY=EUR&DCURRENCY=EUR&LANG=en&LANGUAGES=en,pt,fr&SRC=eStore&ARN=0&OPTIONS4639928=5PCs,1_y",
							"price": "64.95"
						}
					}
				},
				"KES": {
					"unit": "KES",
					"auto": {
						"1": {
							"url": "https://store.kaspersky.co.za/order/checkout.php?PRODS=4639928&QTY=1&CART=1&CARD=1&SHORT_FORM=12018&CURRENCY=KES&DCURRENCY=KES&LANG=en&LANGUAGES=en,pt,fr&SRC=eStore&ARN=1&OPTIONS4639928=1PCs,1_y",
							"price": "3459.95"
						},
						"2": {
							"url": "https://store.kaspersky.co.za/order/checkout.php?PRODS=4639928&QTY=1&CART=1&CARD=1&SHORT_FORM=12018&CURRENCY=KES&DCURRENCY=KES&LANG=en&LANGUAGES=en,pt,fr&SRC=eStore&ARN=1&OPTIONS4639928=2PCs,1_y",
							"price": "3984.95"
						},
						"3": {
							"url": "https://store.kaspersky.co.za/order/checkout.php?PRODS=4639928&QTY=1&CART=1&CARD=1&SHORT_FORM=12018&CURRENCY=KES&DCURRENCY=KES&LANG=en&LANGUAGES=en,pt,fr&SRC=eStore&ARN=1&OPTIONS4639928=3PCs,1_y",
							"price": "4614.95"
						},
						"4": {
							"url": "https://store.kaspersky.co.za/order/checkout.php?PRODS=4639928&QTY=1&CART=1&CARD=1&SHORT_FORM=12018&CURRENCY=KES&DCURRENCY=KES&LANG=en&LANGUAGES=en,pt,fr&SRC=eStore&ARN=1&OPTIONS4639928=4PCs,1_y",
							"price": "5034.95"
						},
						"5": {
							"url": "https://store.kaspersky.co.za/order/checkout.php?PRODS=4639928&QTY=1&CART=1&CARD=1&SHORT_FORM=12018&CURRENCY=KES&DCURRENCY=KES&LANG=en&LANGUAGES=en,pt,fr&SRC=eStore&ARN=1&OPTIONS4639928=5PCs,1_y",
							"price": "5664.95"
						}
					},
					"manual": {
						"1": {
							"url": "https://store.kaspersky.co.za/order/checkout.php?PRODS=4639928&QTY=1&CART=1&CARD=1&SHORT_FORM=12018&CURRENCY=KES&DCURRENCY=KES&LANG=en&LANGUAGES=en,pt,fr&SRC=eStore&ARN=0&OPTIONS4639928=1PCs,1_y",
							"price": "3459.95"
						},
						"2": {
							"url": "https://store.kaspersky.co.za/order/checkout.php?PRODS=4639928&QTY=1&CART=1&CARD=1&SHORT_FORM=12018&CURRENCY=KES&DCURRENCY=KES&LANG=en&LANGUAGES=en,pt,fr&SRC=eStore&ARN=0&OPTIONS4639928=2PCs,1_y",
							"price": "3984.95"
						},
						"3": {
							"url": "https://store.kaspersky.co.za/order/checkout.php?PRODS=4639928&QTY=1&CART=1&CARD=1&SHORT_FORM=12018&CURRENCY=KES&DCURRENCY=KES&LANG=en&LANGUAGES=en,pt,fr&SRC=eStore&ARN=0&OPTIONS4639928=3PCs,1_y",
							"price": "4614.95"
						},
						"4": {
							"url": "https://store.kaspersky.co.za/order/checkout.php?PRODS=4639928&QTY=1&CART=1&CARD=1&SHORT_FORM=12018&CURRENCY=KES&DCURRENCY=KES&LANG=en&LANGUAGES=en,pt,fr&SRC=eStore&ARN=0&OPTIONS4639928=4PCs,1_y",
							"price": "5034.95"
						},
						"5": {
							"url": "https://store.kaspersky.co.za/order/checkout.php?PRODS=4639928&QTY=1&CART=1&CARD=1&SHORT_FORM=12018&CURRENCY=KES&DCURRENCY=KES&LANG=en&LANGUAGES=en,pt,fr&SRC=eStore&ARN=0&OPTIONS4639928=5PCs,1_y",
							"price": "5664.95"
						}
					}
				},
				"NAD": {
					"unit": "NAD",
					"auto": {
						"1": {
							"url": "https://store.kaspersky.co.za/order/checkout.php?PRODS=4639928&QTY=1&CART=1&CARD=1&SHORT_FORM=12018&CURRENCY=NAD&DCURRENCY=NAD&LANG=en&LANGUAGES=en,pt,fr&SRC=eStore&ARN=1&OPTIONS4639928=1PCs,1_y",
							"price": "493.95"
						},
						"2": {
							"url": "https://store.kaspersky.co.za/order/checkout.php?PRODS=4639928&QTY=1&CART=1&CARD=1&SHORT_FORM=12018&CURRENCY=NAD&DCURRENCY=NAD&LANG=en&LANGUAGES=en,pt,fr&SRC=eStore&ARN=1&OPTIONS4639928=2PCs,1_y",
							"price": "568.95"
						},
						"3": {
							"url": "https://store.kaspersky.co.za/order/checkout.php?PRODS=4639928&QTY=1&CART=1&CARD=1&SHORT_FORM=12018&CURRENCY=NAD&DCURRENCY=NAD&LANG=en&LANGUAGES=en,pt,fr&SRC=eStore&ARN=1&OPTIONS4639928=3PCs,1_y",
							"price": "658.95"
						},
						"4": {
							"url": "https://store.kaspersky.co.za/order/checkout.php?PRODS=4639928&QTY=1&CART=1&CARD=1&SHORT_FORM=12018&CURRENCY=NAD&DCURRENCY=NAD&LANG=en&LANGUAGES=en,pt,fr&SRC=eStore&ARN=1&OPTIONS4639928=4PCs,1_y",
							"price": "718.95"
						},
						"5": {
							"url": "https://store.kaspersky.co.za/order/checkout.php?PRODS=4639928&QTY=1&CART=1&CARD=1&SHORT_FORM=12018&CURRENCY=NAD&DCURRENCY=NAD&LANG=en&LANGUAGES=en,pt,fr&SRC=eStore&ARN=1&OPTIONS4639928=5PCs,1_y",
							"price": "808.95"
						}
					},
					"manual": {
						"1": {
							"url": "https://store.kaspersky.co.za/order/checkout.php?PRODS=4639928&QTY=1&CART=1&CARD=1&SHORT_FORM=12018&CURRENCY=NAD&DCURRENCY=NAD&LANG=en&LANGUAGES=en,pt,fr&SRC=eStore&ARN=0&OPTIONS4639928=1PCs,1_y",
							"price": "493.95"
						},
						"2": {
							"url": "https://store.kaspersky.co.za/order/checkout.php?PRODS=4639928&QTY=1&CART=1&CARD=1&SHORT_FORM=12018&CURRENCY=NAD&DCURRENCY=NAD&LANG=en&LANGUAGES=en,pt,fr&SRC=eStore&ARN=0&OPTIONS4639928=2PCs,1_y",
							"price": "568.95"
						},
						"3": {
							"url": "https://store.kaspersky.co.za/order/checkout.php?PRODS=4639928&QTY=1&CART=1&CARD=1&SHORT_FORM=12018&CURRENCY=NAD&DCURRENCY=NAD&LANG=en&LANGUAGES=en,pt,fr&SRC=eStore&ARN=0&OPTIONS4639928=3PCs,1_y",
							"price": "658.95"
						},
						"4": {
							"url": "https://store.kaspersky.co.za/order/checkout.php?PRODS=4639928&QTY=1&CART=1&CARD=1&SHORT_FORM=12018&CURRENCY=NAD&DCURRENCY=NAD&LANG=en&LANGUAGES=en,pt,fr&SRC=eStore&ARN=0&OPTIONS4639928=4PCs,1_y",
							"price": "718.95"
						},
						"5": {
							"url": "https://store.kaspersky.co.za/order/checkout.php?PRODS=4639928&QTY=1&CART=1&CARD=1&SHORT_FORM=12018&CURRENCY=NAD&DCURRENCY=NAD&LANG=en&LANGUAGES=en,pt,fr&SRC=eStore&ARN=0&OPTIONS4639928=5PCs,1_y",
							"price": "808.95"
						}
					}
				},
				"NGN": {
					"unit": "NGN",
					"auto": {
						"1": {
							"url": "https://store.kaspersky.co.za/order/checkout.php?PRODS=4639928&QTY=1&CART=1&CARD=1&SHORT_FORM=12018&CURRENCY=NGN&DCURRENCY=NGN&LANG=en&LANGUAGES=en,pt,fr&SRC=eStore&ARN=1&OPTIONS4639928=1PCs,1_y",
							"price": "11532.95"
						},
						"2": {
							"url": "https://store.kaspersky.co.za/order/checkout.php?PRODS=4639928&QTY=1&CART=1&CARD=1&SHORT_FORM=12018&CURRENCY=NGN&DCURRENCY=NGN&LANG=en&LANGUAGES=en,pt,fr&SRC=eStore&ARN=1&OPTIONS4639928=2PCs,1_y",
							"price": "13282.95"
						},
						"3": {
							"url": "https://store.kaspersky.co.za/order/checkout.php?PRODS=4639928&QTY=1&CART=1&CARD=1&SHORT_FORM=12018&CURRENCY=NGN&DCURRENCY=NGN&LANG=en&LANGUAGES=en,pt,fr&SRC=eStore&ARN=1&OPTIONS4639928=3PCs,1_y",
							"price": "15382.95"
						},
						"4": {
							"url": "https://store.kaspersky.co.za/order/checkout.php?PRODS=4639928&QTY=1&CART=1&CARD=1&SHORT_FORM=12018&CURRENCY=NGN&DCURRENCY=NGN&LANG=en&LANGUAGES=en,pt,fr&SRC=eStore&ARN=1&OPTIONS4639928=4PCs,1_y",
							"price": "16782.95"
						},
						"5": {
							"url": "https://store.kaspersky.co.za/order/checkout.php?PRODS=4639928&QTY=1&CART=1&CARD=1&SHORT_FORM=12018&CURRENCY=NGN&DCURRENCY=NGN&LANG=en&LANGUAGES=en,pt,fr&SRC=eStore&ARN=1&OPTIONS4639928=5PCs,1_y",
							"price": "18882.95"
						}
					},
					"manual": {
						"1": {
							"url": "https://store.kaspersky.co.za/order/checkout.php?PRODS=4639928&QTY=1&CART=1&CARD=1&SHORT_FORM=12018&CURRENCY=NGN&DCURRENCY=NGN&LANG=en&LANGUAGES=en,pt,fr&SRC=eStore&ARN=0&OPTIONS4639928=1PCs,1_y",
							"price": "11532.95"
						},
						"2": {
							"url": "https://store.kaspersky.co.za/order/checkout.php?PRODS=4639928&QTY=1&CART=1&CARD=1&SHORT_FORM=12018&CURRENCY=NGN&DCURRENCY=NGN&LANG=en&LANGUAGES=en,pt,fr&SRC=eStore&ARN=0&OPTIONS4639928=2PCs,1_y",
							"price": "13282.95"
						},
						"3": {
							"url": "https://store.kaspersky.co.za/order/checkout.php?PRODS=4639928&QTY=1&CART=1&CARD=1&SHORT_FORM=12018&CURRENCY=NGN&DCURRENCY=NGN&LANG=en&LANGUAGES=en,pt,fr&SRC=eStore&ARN=0&OPTIONS4639928=3PCs,1_y",
							"price": "15382.95"
						},
						"4": {
							"url": "https://store.kaspersky.co.za/order/checkout.php?PRODS=4639928&QTY=1&CART=1&CARD=1&SHORT_FORM=12018&CURRENCY=NGN&DCURRENCY=NGN&LANG=en&LANGUAGES=en,pt,fr&SRC=eStore&ARN=0&OPTIONS4639928=4PCs,1_y",
							"price": "16782.95"
						},
						"5": {
							"url": "https://store.kaspersky.co.za/order/checkout.php?PRODS=4639928&QTY=1&CART=1&CARD=1&SHORT_FORM=12018&CURRENCY=NGN&DCURRENCY=NGN&LANG=en&LANGUAGES=en,pt,fr&SRC=eStore&ARN=0&OPTIONS4639928=5PCs,1_y",
							"price": "18882.95"
						}
					}
				},
				"USD": {
					"unit": "USD",
					"auto": {
						"1": {
							"url": "https://store.kaspersky.co.za/order/checkout.php?PRODS=4639928&QTY=1&CART=1&CARD=1&SHORT_FORM=12018&CURRENCY=USD&DCURRENCY=USD&LANG=en&LANGUAGES=en,pt,fr&SRC=eStore&ARN=1&OPTIONS4639928=1PCs,1_y",
							"price": "32.95"
						},
						"2": {
							"url": "https://store.kaspersky.co.za/order/checkout.php?PRODS=4639928&QTY=1&CART=1&CARD=1&SHORT_FORM=12018&CURRENCY=USD&DCURRENCY=USD&LANG=en&LANGUAGES=en,pt,fr&SRC=eStore&ARN=1&OPTIONS4639928=2PCs,1_y",
							"price": "37.95"
						},
						"3": {
							"url": "https://store.kaspersky.co.za/order/checkout.php?PRODS=4639928&QTY=1&CART=1&CARD=1&SHORT_FORM=12018&CURRENCY=USD&DCURRENCY=USD&LANG=en&LANGUAGES=en,pt,fr&SRC=eStore&ARN=1&OPTIONS4639928=3PCs,1_y",
							"price": "43.95"
						},
						"4": {
							"url": "https://store.kaspersky.co.za/order/checkout.php?PRODS=4639928&QTY=1&CART=1&CARD=1&SHORT_FORM=12018&CURRENCY=USD&DCURRENCY=USD&LANG=en&LANGUAGES=en,pt,fr&SRC=eStore&ARN=1&OPTIONS4639928=4PCs,1_y",
							"price": "47.95"
						},
						"5": {
							"url": "https://store.kaspersky.co.za/order/checkout.php?PRODS=4639928&QTY=1&CART=1&CARD=1&SHORT_FORM=12018&CURRENCY=USD&DCURRENCY=USD&LANG=en&LANGUAGES=en,pt,fr&SRC=eStore&ARN=1&OPTIONS4639928=5PCs,1_y",
							"price": "53.95"
						}
					},
					"manual": {
						"1": {
							"url": "https://store.kaspersky.co.za/order/checkout.php?PRODS=4639928&QTY=1&CART=1&CARD=1&SHORT_FORM=12018&CURRENCY=USD&DCURRENCY=USD&LANG=en&LANGUAGES=en,pt,fr&SRC=eStore&ARN=0&OPTIONS4639928=1PCs,1_y",
							"price": "32.95"
						},
						"2": {
							"url": "https://store.kaspersky.co.za/order/checkout.php?PRODS=4639928&QTY=1&CART=1&CARD=1&SHORT_FORM=12018&CURRENCY=USD&DCURRENCY=USD&LANG=en&LANGUAGES=en,pt,fr&SRC=eStore&ARN=0&OPTIONS4639928=2PCs,1_y",
							"price": "37.95"
						},
						"3": {
							"url": "https://store.kaspersky.co.za/order/checkout.php?PRODS=4639928&QTY=1&CART=1&CARD=1&SHORT_FORM=12018&CURRENCY=USD&DCURRENCY=USD&LANG=en&LANGUAGES=en,pt,fr&SRC=eStore&ARN=0&OPTIONS4639928=3PCs,1_y",
							"price": "43.95"
						},
						"4": {
							"url": "https://store.kaspersky.co.za/order/checkout.php?PRODS=4639928&QTY=1&CART=1&CARD=1&SHORT_FORM=12018&CURRENCY=USD&DCURRENCY=USD&LANG=en&LANGUAGES=en,pt,fr&SRC=eStore&ARN=0&OPTIONS4639928=4PCs,1_y",
							"price": "47.95"
						},
						"5": {
							"url": "https://store.kaspersky.co.za/order/checkout.php?PRODS=4639928&QTY=1&CART=1&CARD=1&SHORT_FORM=12018&CURRENCY=USD&DCURRENCY=USD&LANG=en&LANGUAGES=en,pt,fr&SRC=eStore&ARN=0&OPTIONS4639928=5PCs,1_y",
							"price": "53.95"
						}
					}
				},
				"ZAR": {
					"unit": "ZAR",
					"auto": {
						"1": {
							"url": "https://store.kaspersky.co.za/order/checkout.php?PRODS=4639928&QTY=1&CART=1&CARD=1&SHORT_FORM=12018&CURRENCY=ZAR&DCURRENCY=ZAR&LANG=en&LANGUAGES=en,pt,fr&SRC=eStore&ARN=1&OPTIONS4639928=1PCs,1_y",
							"price": "493.95"
						},
						"2": {
							"url": "https://store.kaspersky.co.za/order/checkout.php?PRODS=4639928&QTY=1&CART=1&CARD=1&SHORT_FORM=12018&CURRENCY=ZAR&DCURRENCY=ZAR&LANG=en&LANGUAGES=en,pt,fr&SRC=eStore&ARN=1&OPTIONS4639928=2PCs,1_y",
							"price": "568.95"
						},
						"3": {
							"url": "https://store.kaspersky.co.za/order/checkout.php?PRODS=4639928&QTY=1&CART=1&CARD=1&SHORT_FORM=12018&CURRENCY=ZAR&DCURRENCY=ZAR&LANG=en&LANGUAGES=en,pt,fr&SRC=eStore&ARN=1&OPTIONS4639928=3PCs,1_y",
							"price": "658.95"
						},
						"4": {
							"url": "https://store.kaspersky.co.za/order/checkout.php?PRODS=4639928&QTY=1&CART=1&CARD=1&SHORT_FORM=12018&CURRENCY=ZAR&DCURRENCY=ZAR&LANG=en&LANGUAGES=en,pt,fr&SRC=eStore&ARN=1&OPTIONS4639928=4PCs,1_y",
							"price": "718.95"
						},
						"5": {
							"url": "https://store.kaspersky.co.za/order/checkout.php?PRODS=4639928&QTY=1&CART=1&CARD=1&SHORT_FORM=12018&CURRENCY=ZAR&DCURRENCY=ZAR&LANG=en&LANGUAGES=en,pt,fr&SRC=eStore&ARN=1&OPTIONS4639928=5PCs,1_y",
							"price": "808.95"
						}
					},
					"manual": {
						"1": {
							"url": "https://store.kaspersky.co.za/order/checkout.php?PRODS=4639928&QTY=1&CART=1&CARD=1&SHORT_FORM=12018&CURRENCY=ZAR&DCURRENCY=ZAR&LANG=en&LANGUAGES=en,pt,fr&SRC=eStore&ARN=0&OPTIONS4639928=1PCs,1_y",
							"price": "493.95"
						},
						"2": {
							"url": "https://store.kaspersky.co.za/order/checkout.php?PRODS=4639928&QTY=1&CART=1&CARD=1&SHORT_FORM=12018&CURRENCY=ZAR&DCURRENCY=ZAR&LANG=en&LANGUAGES=en,pt,fr&SRC=eStore&ARN=0&OPTIONS4639928=2PCs,1_y",
							"price": "568.95"
						},
						"3": {
							"url": "https://store.kaspersky.co.za/order/checkout.php?PRODS=4639928&QTY=1&CART=1&CARD=1&SHORT_FORM=12018&CURRENCY=ZAR&DCURRENCY=ZAR&LANG=en&LANGUAGES=en,pt,fr&SRC=eStore&ARN=0&OPTIONS4639928=3PCs,1_y",
							"price": "658.95"
						},
						"4": {
							"url": "https://store.kaspersky.co.za/order/checkout.php?PRODS=4639928&QTY=1&CART=1&CARD=1&SHORT_FORM=12018&CURRENCY=ZAR&DCURRENCY=ZAR&LANG=en&LANGUAGES=en,pt,fr&SRC=eStore&ARN=0&OPTIONS4639928=4PCs,1_y",
							"price": "718.95"
						},
						"5": {
							"url": "https://store.kaspersky.co.za/order/checkout.php?PRODS=4639928&QTY=1&CART=1&CARD=1&SHORT_FORM=12018&CURRENCY=ZAR&DCURRENCY=ZAR&LANG=en&LANGUAGES=en,pt,fr&SRC=eStore&ARN=0&OPTIONS4639928=5PCs,1_y",
							"price": "808.95"
						}
					}
				}
			},
			"Internet": {
				"EUR": {
					"unit": "EUR",
					"auto": {
						"1": {
							"url": "https://store.kaspersky.co.za/order/checkout.php?PRODS=4603078&QTY=1&CART=1&CARD=1&SHORT_FORM=12018&OPTIONS4603078=1PCs,1year&LANGUAGES=en,pt,fr&LANG=en&CURRENCY=EUR&DCURRENCY=EUR&ARN=1&SRC=eStore",
							"price": "32.95"
						},
						"2": {
							"url": "https://store.kaspersky.co.za/order/checkout.php?PRODS=4603078&QTY=1&CART=1&CARD=1&SHORT_FORM=12018&OPTIONS4603078=2PCs,1year&LANGUAGES=en,pt,fr&LANG=en&CURRENCY=EUR&DCURRENCY=EUR&ARN=1&SRC=eStore",
							"price": "37.95"
						},
						"3": {
							"url": "https://store.kaspersky.co.za/order/checkout.php?PRODS=4603078&QTY=1&CART=1&CARD=1&SHORT_FORM=12018&OPTIONS4603078=3PCs,1year&LANGUAGES=en,pt,fr&LANG=en&CURRENCY=EUR&DCURRENCY=EUR&ARN=1&SRC=eStore",
							"price": "41.95"
						},
						"4": {
							"url": "https://store.kaspersky.co.za/order/checkout.php?PRODS=4603078&QTY=1&CART=1&CARD=1&SHORT_FORM=12018&OPTIONS4603078=4PCs,1year&LANGUAGES=en,pt,fr&LANG=en&CURRENCY=EUR&DCURRENCY=EUR&ARN=1&SRC=eStore",
							"price": "45.95"
						},
						"5": {
							"url": "https://store.kaspersky.co.za/order/checkout.php?PRODS=4603078&QTY=1&CART=1&CARD=1&SHORT_FORM=12018&OPTIONS4603078=5PCs,1year&LANGUAGES=en,pt,fr&LANG=en&CURRENCY=EUR&DCURRENCY=EUR&ARN=1&SRC=eStore",
							"price": "50.95"
						}
					},
					"manual": {
						"1": {
							"url": "https://store.kaspersky.co.za/order/checkout.php?PRODS=4603078&QTY=1&CART=1&CARD=1&SHORT_FORM=12018&OPTIONS4603078=1PCs,1year&LANGUAGES=en,pt,fr&LANG=en&CURRENCY=EUR&DCURRENCY=EUR&ARN=0&SRC=eStore",
							"price": "32.95"
						},
						"2": {
							"url": "https://store.kaspersky.co.za/order/checkout.php?PRODS=4603078&QTY=1&CART=1&CARD=1&SHORT_FORM=12018&OPTIONS4603078=2PCs,1year&LANGUAGES=en,pt,fr&LANG=en&CURRENCY=EUR&DCURRENCY=EUR&ARN=0&SRC=eStore",
							"price": "37.95"
						},
						"3": {
							"url": "https://store.kaspersky.co.za/order/checkout.php?PRODS=4603078&QTY=1&CART=1&CARD=1&SHORT_FORM=12018&OPTIONS4603078=3PCs,1year&LANGUAGES=en,pt,fr&LANG=en&CURRENCY=EUR&DCURRENCY=EUR&ARN=0&SRC=eStore",
							"price": "41.95"
						},
						"4": {
							"url": "https://store.kaspersky.co.za/order/checkout.php?PRODS=4603078&QTY=1&CART=1&CARD=1&SHORT_FORM=12018&OPTIONS4603078=4PCs,1year&LANGUAGES=en,pt,fr&LANG=en&CURRENCY=EUR&DCURRENCY=EUR&ARN=0&SRC=eStore",
							"price": "45.95"
						},
						"5": {
							"url": "https://store.kaspersky.co.za/order/checkout.php?PRODS=4603078&QTY=1&CART=1&CARD=1&SHORT_FORM=12018&OPTIONS4603078=5PCs,1year&LANGUAGES=en,pt,fr&LANG=en&CURRENCY=EUR&DCURRENCY=EUR&ARN=0&SRC=eStore",
							"price": "50.95"
						}
					}
				},
				"KES": {
					"unit": "KES",
					"auto": {
						"1": {
							"url": "https://store.kaspersky.co.za/order/checkout.php?PRODS=4603078&QTY=1&CART=1&CARD=1&SHORT_FORM=12018&OPTIONS4603078=1PCs,1year&LANGUAGES=en,pt,fr&LANG=en&CURRENCY=KES&DCURRENCY=KES&ARN=1&SRC=eStore",
							"price": "3144.95"
						},
						"2": {
							"url": "https://store.kaspersky.co.za/order/checkout.php?PRODS=4603078&QTY=1&CART=1&CARD=1&SHORT_FORM=12018&OPTIONS4603078=2PCs,1year&LANGUAGES=en,pt,fr&LANG=en&CURRENCY=KES&DCURRENCY=KES&ARN=1&SRC=eStore",
							"price": "3669.95"
						},
						"3": {
							"url": "https://store.kaspersky.co.za/order/checkout.php?PRODS=4603078&QTY=1&CART=1&CARD=1&SHORT_FORM=12018&OPTIONS4603078=3PCs,1year&LANGUAGES=en,pt,fr&LANG=en&CURRENCY=KES&DCURRENCY=KES&ARN=1&SRC=eStore",
							"price": "4089.95"
						},
						"4": {
							"url": "https://store.kaspersky.co.za/order/checkout.php?PRODS=4603078&QTY=1&CART=1&CARD=1&SHORT_FORM=12018&OPTIONS4603078=4PCs,1year&LANGUAGES=en,pt,fr&LANG=en&CURRENCY=KES&DCURRENCY=KES&ARN=1&SRC=eStore",
							"price": "4614.95"
						},
						"5": {
							"url": "https://store.kaspersky.co.za/order/checkout.php?PRODS=4603078&QTY=1&CART=1&CARD=1&SHORT_FORM=12018&OPTIONS4603078=5PCs,1year&LANGUAGES=en,pt,fr&LANG=en&CURRENCY=KES&DCURRENCY=KES&ARN=1&SRC=eStore",
							"price": "5244.95"
						}
					},
					"manual": {
						"1": {
							"url": "https://store.kaspersky.co.za/order/checkout.php?PRODS=4603078&QTY=1&CART=1&CARD=1&SHORT_FORM=12018&OPTIONS4603078=1PCs,1year&LANGUAGES=en,pt,fr&LANG=en&CURRENCY=KES&DCURRENCY=KES&ARN=0&SRC=eStore",
							"price": "3144.95"
						},
						"2": {
							"url": "https://store.kaspersky.co.za/order/checkout.php?PRODS=4603078&QTY=1&CART=1&CARD=1&SHORT_FORM=12018&OPTIONS4603078=2PCs,1year&LANGUAGES=en,pt,fr&LANG=en&CURRENCY=KES&DCURRENCY=KES&ARN=0&SRC=eStore",
							"price": "3669.95"
						},
						"3": {
							"url": "https://store.kaspersky.co.za/order/checkout.php?PRODS=4603078&QTY=1&CART=1&CARD=1&SHORT_FORM=12018&OPTIONS4603078=3PCs,1year&LANGUAGES=en,pt,fr&LANG=en&CURRENCY=KES&DCURRENCY=KES&ARN=0&SRC=eStore",
							"price": "4089.95"
						},
						"4": {
							"url": "https://store.kaspersky.co.za/order/checkout.php?PRODS=4603078&QTY=1&CART=1&CARD=1&SHORT_FORM=12018&OPTIONS4603078=4PCs,1year&LANGUAGES=en,pt,fr&LANG=en&CURRENCY=KES&DCURRENCY=KES&ARN=0&SRC=eStore",
							"price": "4614.95"
						},
						"5": {
							"url": "https://store.kaspersky.co.za/order/checkout.php?PRODS=4603078&QTY=1&CART=1&CARD=1&SHORT_FORM=12018&OPTIONS4603078=5PCs,1year&LANGUAGES=en,pt,fr&LANG=en&CURRENCY=KES&DCURRENCY=KES&ARN=0&SRC=eStore",
							"price": "5244.95"
						}
					}
				},
				"NAD": {
					"unit": "NAD",
					"auto": {
						"1": {
							"url": "https://store.kaspersky.co.za/order/checkout.php?PRODS=4603078&QTY=1&CART=1&CARD=1&SHORT_FORM=12018&OPTIONS4603078=1PCs,1year&LANGUAGES=en,pt,fr&LANG=en&CURRENCY=NAD&DCURRENCY=NAD&ARN=1&SRC=eStore",
							"price": "448.95"
						},
						"2": {
							"url": "https://store.kaspersky.co.za/order/checkout.php?PRODS=4603078&QTY=1&CART=1&CARD=1&SHORT_FORM=12018&OPTIONS4603078=2PCs,1year&LANGUAGES=en,pt,fr&LANG=en&CURRENCY=NAD&DCURRENCY=NAD&ARN=1&SRC=eStore",
							"price": "523.95"
						},
						"3": {
							"url": "https://store.kaspersky.co.za/order/checkout.php?PRODS=4603078&QTY=1&CART=1&CARD=1&SHORT_FORM=12018&OPTIONS4603078=3PCs,1year&LANGUAGES=en,pt,fr&LANG=en&CURRENCY=NAD&DCURRENCY=NAD&ARN=1&SRC=eStore",
							"price": "583.95"
						},
						"4": {
							"url": "https://store.kaspersky.co.za/order/checkout.php?PRODS=4603078&QTY=1&CART=1&CARD=1&SHORT_FORM=12018&OPTIONS4603078=4PCs,1year&LANGUAGES=en,pt,fr&LANG=en&CURRENCY=NAD&DCURRENCY=NAD&ARN=1&SRC=eStore",
							"price": "658.95"
						},
						"5": {
							"url": "https://store.kaspersky.co.za/order/checkout.php?PRODS=4603078&QTY=1&CART=1&CARD=1&SHORT_FORM=12018&OPTIONS4603078=5PCs,1year&LANGUAGES=en,pt,fr&LANG=en&CURRENCY=NAD&DCURRENCY=NAD&ARN=1&SRC=eStore",
							"price": "748.95"
						}
					},
					"manual": {
						"1": {
							"url": "https://store.kaspersky.co.za/order/checkout.php?PRODS=4603078&QTY=1&CART=1&CARD=1&SHORT_FORM=12018&OPTIONS4603078=1PCs,1year&LANGUAGES=en,pt,fr&LANG=en&CURRENCY=NAD&DCURRENCY=NAD&ARN=0&SRC=eStore",
							"price": "448.95"
						},
						"2": {
							"url": "https://store.kaspersky.co.za/order/checkout.php?PRODS=4603078&QTY=1&CART=1&CARD=1&SHORT_FORM=12018&OPTIONS4603078=2PCs,1year&LANGUAGES=en,pt,fr&LANG=en&CURRENCY=NAD&DCURRENCY=NAD&ARN=0&SRC=eStore",
							"price": "523.95"
						},
						"3": {
							"url": "https://store.kaspersky.co.za/order/checkout.php?PRODS=4603078&QTY=1&CART=1&CARD=1&SHORT_FORM=12018&OPTIONS4603078=3PCs,1year&LANGUAGES=en,pt,fr&LANG=en&CURRENCY=NAD&DCURRENCY=NAD&ARN=0&SRC=eStore",
							"price": "583.95"
						},
						"4": {
							"url": "https://store.kaspersky.co.za/order/checkout.php?PRODS=4603078&QTY=1&CART=1&CARD=1&SHORT_FORM=12018&OPTIONS4603078=4PCs,1year&LANGUAGES=en,pt,fr&LANG=en&CURRENCY=NAD&DCURRENCY=NAD&ARN=0&SRC=eStore",
							"price": "658.95"
						},
						"5": {
							"url": "https://store.kaspersky.co.za/order/checkout.php?PRODS=4603078&QTY=1&CART=1&CARD=1&SHORT_FORM=12018&OPTIONS4603078=5PCs,1year&LANGUAGES=en,pt,fr&LANG=en&CURRENCY=NAD&DCURRENCY=NAD&ARN=0&SRC=eStore",
							"price": "748.95"
						}
					}
				},
				"NGN": {
					"unit": "NGN",
					"auto": {
						"1": {
							"url": "https://store.kaspersky.co.za/order/checkout.php?PRODS=4603078&QTY=1&CART=1&CARD=1&SHORT_FORM=12018&OPTIONS4603078=1PCs,1year&LANGUAGES=en,pt,fr&LANG=en&CURRENCY=NGN&DCURRENCY=NGN&ARN=1&SRC=eStore",
							"price": "10482.95"
						},
						"2": {
							"url": "https://store.kaspersky.co.za/order/checkout.php?PRODS=4603078&QTY=1&CART=1&CARD=1&SHORT_FORM=12018&OPTIONS4603078=2PCs,1year&LANGUAGES=en,pt,fr&LANG=en&CURRENCY=NGN&DCURRENCY=NGN&ARN=1&SRC=eStore",
							"price": "12232.95"
						},
						"3": {
							"url": "https://store.kaspersky.co.za/order/checkout.php?PRODS=4603078&QTY=1&CART=1&CARD=1&SHORT_FORM=12018&OPTIONS4603078=3PCs,1year&LANGUAGES=en,pt,fr&LANG=en&CURRENCY=NGN&DCURRENCY=NGN&ARN=1&SRC=eStore",
							"price": "13632.95"
						},
						"4": {
							"url": "https://store.kaspersky.co.za/order/checkout.php?PRODS=4603078&QTY=1&CART=1&CARD=1&SHORT_FORM=12018&OPTIONS4603078=4PCs,1year&LANGUAGES=en,pt,fr&LANG=en&CURRENCY=NGN&DCURRENCY=NGN&ARN=1&SRC=eStore",
							"price": "15382.95"
						},
						"5": {
							"url": "https://store.kaspersky.co.za/order/checkout.php?PRODS=4603078&QTY=1&CART=1&CARD=1&SHORT_FORM=12018&OPTIONS4603078=5PCs,1year&LANGUAGES=en,pt,fr&LANG=en&CURRENCY=NGN&DCURRENCY=NGN&ARN=1&SRC=eStore",
							"price": "17482.95"
						}
					},
					"manual": {
						"1": {
							"url": "https://store.kaspersky.co.za/order/checkout.php?PRODS=4603078&QTY=1&CART=1&CARD=1&SHORT_FORM=12018&OPTIONS4603078=1PCs,1year&LANGUAGES=en,pt,fr&LANG=en&CURRENCY=NGN&DCURRENCY=NGN&ARN=0&SRC=eStore",
							"price": "10482.95"
						},
						"2": {
							"url": "https://store.kaspersky.co.za/order/checkout.php?PRODS=4603078&QTY=1&CART=1&CARD=1&SHORT_FORM=12018&OPTIONS4603078=2PCs,1year&LANGUAGES=en,pt,fr&LANG=en&CURRENCY=NGN&DCURRENCY=NGN&ARN=0&SRC=eStore",
							"price": "12232.95"
						},
						"3": {
							"url": "https://store.kaspersky.co.za/order/checkout.php?PRODS=4603078&QTY=1&CART=1&CARD=1&SHORT_FORM=12018&OPTIONS4603078=3PCs,1year&LANGUAGES=en,pt,fr&LANG=en&CURRENCY=NGN&DCURRENCY=NGN&ARN=0&SRC=eStore",
							"price": "13632.95"
						},
						"4": {
							"url": "https://store.kaspersky.co.za/order/checkout.php?PRODS=4603078&QTY=1&CART=1&CARD=1&SHORT_FORM=12018&OPTIONS4603078=4PCs,1year&LANGUAGES=en,pt,fr&LANG=en&CURRENCY=NGN&DCURRENCY=NGN&ARN=0&SRC=eStore",
							"price": "15382.95"
						},
						"5": {
							"url": "https://store.kaspersky.co.za/order/checkout.php?PRODS=4603078&QTY=1&CART=1&CARD=1&SHORT_FORM=12018&OPTIONS4603078=5PCs,1year&LANGUAGES=en,pt,fr&LANG=en&CURRENCY=NGN&DCURRENCY=NGN&ARN=0&SRC=eStore",
							"price": "17482.95"
						}
					}
				},
				"USD": {
					"unit": "USD",
					"auto": {
						"1": {
							"url": "https://store.kaspersky.co.za/order/checkout.php?PRODS=4603078&QTY=1&CART=1&CARD=1&SHORT_FORM=12018&OPTIONS4603078=1PCs,1year&LANGUAGES=en,pt,fr&LANG=en&CURRENCY=USD&DCURRENCY=USD&ARN=1&SRC=eStore",
							"price": "29.95"
						},
						"2": {
							"url": "https://store.kaspersky.co.za/order/checkout.php?PRODS=4603078&QTY=1&CART=1&CARD=1&SHORT_FORM=12018&OPTIONS4603078=2PCs,1year&LANGUAGES=en,pt,fr&LANG=en&CURRENCY=USD&DCURRENCY=USD&ARN=1&SRC=eStore",
							"price": "34.95"
						},
						"3": {
							"url": "https://store.kaspersky.co.za/order/checkout.php?PRODS=4603078&QTY=1&CART=1&CARD=1&SHORT_FORM=12018&OPTIONS4603078=3PCs,1year&LANGUAGES=en,pt,fr&LANG=en&CURRENCY=USD&DCURRENCY=USD&ARN=1&SRC=eStore",
							"price": "38.95"
						},
						"4": {
							"url": "https://store.kaspersky.co.za/order/checkout.php?PRODS=4603078&QTY=1&CART=1&CARD=1&SHORT_FORM=12018&OPTIONS4603078=4PCs,1year&LANGUAGES=en,pt,fr&LANG=en&CURRENCY=USD&DCURRENCY=USD&ARN=1&SRC=eStore",
							"price": "43.95"
						},
						"5": {
							"url": "https://store.kaspersky.co.za/order/checkout.php?PRODS=4603078&QTY=1&CART=1&CARD=1&SHORT_FORM=12018&OPTIONS4603078=5PCs,1year&LANGUAGES=en,pt,fr&LANG=en&CURRENCY=USD&DCURRENCY=USD&ARN=1&SRC=eStore",
							"price": "49.95"
						}
					},
					"manual": {
						"1": {
							"url": "https://store.kaspersky.co.za/order/checkout.php?PRODS=4603087&QTY=1&CART=1&CARD=1&SHORT_FORM=1&OPTIONS4603087=1PCs,1year&LANGUAGES=en,pt,fr&LANG=en&CURRENCY=USD&DCURRENCY=USD&ARN=1&SRC=LRC",
							"price": "29.95"
						},
						"2": {
							"url": "https://store.kaspersky.co.za/order/checkout.php?PRODS=4603087&QTY=1&CART=1&CARD=1&SHORT_FORM=1&OPTIONS4603087=2PCs,1year&LANGUAGES=en,pt,fr&LANG=en&CURRENCY=USD&DCURRENCY=USD&ARN=1&SRC=LRC",
							"price": "34.95"
						},
						"3": {
							"url": "https://store.kaspersky.co.za/order/checkout.php?PRODS=4603087&QTY=1&CART=1&CARD=1&SHORT_FORM=1&OPTIONS4603087=3PCs,1year&LANGUAGES=en,pt,fr&LANG=en&CURRENCY=USD&DCURRENCY=USD&ARN=1&SRC=LRC",
							"price": "38.95"
						},
						"4": {
							"url": "https://store.kaspersky.co.za/order/checkout.php?PRODS=4603087&QTY=1&CART=1&CARD=1&SHORT_FORM=1&OPTIONS4603087=4PCs,1year&LANGUAGES=en,pt,fr&LANG=en&CURRENCY=USD&DCURRENCY=USD&ARN=1&SRC=LRC",
							"price": "43.95"
						},
						"5": {
							"url": "https://store.kaspersky.co.za/order/checkout.php?PRODS=4603087&QTY=1&CART=1&CARD=1&SHORT_FORM=1&OPTIONS4603087=5PCs,1year&LANGUAGES=en,pt,fr&LANG=en&CURRENCY=USD&DCURRENCY=USD&ARN=1&SRC=LRC",
							"price": "49.95"
						}
					}
				},
				"ZAR": {
					"unit": "ZAR",
					"auto": {
						"1": {
							"url": "https://store.kaspersky.co.za/order/checkout.php?PRODS=4603078&QTY=1&CART=1&CARD=1&SHORT_FORM=12018&OPTIONS4603078=1PCs,1year&LANGUAGES=en,pt,fr&LANG=en&CURRENCY=ZAR&DCURRENCY=ZAR&ARN=1&SRC=eStore",
							"price": "448.95"
						},
						"2": {
							"url": "https://store.kaspersky.co.za/order/checkout.php?PRODS=4603078&QTY=1&CART=1&CARD=1&SHORT_FORM=12018&OPTIONS4603078=2PCs,1year&LANGUAGES=en,pt,fr&LANG=en&CURRENCY=ZAR&DCURRENCY=ZAR&ARN=1&SRC=eStore",
							"price": "523.95"
						},
						"3": {
							"url": "https://store.kaspersky.co.za/order/checkout.php?PRODS=4603078&QTY=1&CART=1&CARD=1&SHORT_FORM=12018&OPTIONS4603078=3PCs,1year&LANGUAGES=en,pt,fr&LANG=en&CURRENCY=ZAR&DCURRENCY=ZAR&ARN=1&SRC=eStore",
							"price": "583.95"
						},
						"4": {
							"url": "https://store.kaspersky.co.za/order/checkout.php?PRODS=4603078&QTY=1&CART=1&CARD=1&SHORT_FORM=12018&OPTIONS4603078=4PCs,1year&LANGUAGES=en,pt,fr&LANG=en&CURRENCY=ZAR&DCURRENCY=ZAR&ARN=1&SRC=eStore",
							"price": "658.95"
						},
						"5": {
							"url": "https://store.kaspersky.co.za/order/checkout.php?PRODS=4603078&QTY=1&CART=1&CARD=1&SHORT_FORM=12018&OPTIONS4603078=5PCs,1year&LANGUAGES=en,pt,fr&LANG=en&CURRENCY=ZAR&DCURRENCY=ZAR&ARN=1&SRC=eStore",
							"price": "748.95"
						}
					},
					"manual": {
						"1": {
							"url": "https://store.kaspersky.co.za/order/checkout.php?PRODS=4603078&QTY=1&CART=1&CARD=1&SHORT_FORM=12018&OPTIONS4603078=1PCs,1year&LANGUAGES=en,pt,fr&LANG=en&CURRENCY=ZAR&DCURRENCY=ZAR&ARN=0&SRC=eStore",
							"price": "448.95"
						},
						"2": {
							"url": "https://store.kaspersky.co.za/order/checkout.php?PRODS=4603078&QTY=1&CART=1&CARD=1&SHORT_FORM=12018&OPTIONS4603078=2PCs,1year&LANGUAGES=en,pt,fr&LANG=en&CURRENCY=ZAR&DCURRENCY=ZAR&ARN=0&SRC=eStore",
							"price": "523.95"
						},
						"3": {
							"url": "https://store.kaspersky.co.za/order/checkout.php?PRODS=4603078&QTY=1&CART=1&CARD=1&SHORT_FORM=12018&OPTIONS4603078=3PCs,1year&LANGUAGES=en,pt,fr&LANG=en&CURRENCY=ZAR&DCURRENCY=ZAR&ARN=0&SRC=eStore",
							"price": "583.95"
						},
						"4": {
							"url": "https://store.kaspersky.co.za/order/checkout.php?PRODS=4603078&QTY=1&CART=1&CARD=1&SHORT_FORM=12018&OPTIONS4603078=4PCs,1year&LANGUAGES=en,pt,fr&LANG=en&CURRENCY=ZAR&DCURRENCY=ZAR&ARN=0&SRC=eStore",
							"price": "658.95"
						},
						"5": {
							"url": "https://store.kaspersky.co.za/order/checkout.php?PRODS=4603078&QTY=1&CART=1&CARD=1&SHORT_FORM=12018&OPTIONS4603078=5PCs,1year&LANGUAGES=en,pt,fr&LANG=en&CURRENCY=ZAR&DCURRENCY=ZAR&ARN=0&SRC=eStore",
							"price": "748.95"
						}
					}
				}
			}
		}
	}
]